@startuml

|s1| User
|s2| System


|s1|
start
:Yêu cầu tạo cơ sở dữ liệu;
|s2|
if (xác thực?) then (thành công)
  if (tài khoản dịch vụ?) then (có)
  else (không)
    :tạo tài khoản dịch vụ;
  endif
else (thất bại)
  stop
endif
:Tạo cơ sở dữ liệu;
:Cấp quyền truy cập;
stop
@enduml
